{
    "name": "ButendeernTheme",
    "author": "HerrHansen",
    "views": [
        "@ButendeernTheme",
        "@Plugins",
        "@Storefront"

    ],
    "style": [
        "@Storefront",
        "app/storefront/src/scss/overrides.scss",
        "app/storefront/src/scss/base.scss"
    ],
    "script": [
        "app/storefront/dist/storefront/js/butendeern-theme.js",
        "@Storefront"
    ],
    "asset": [
        "app/storefront/src/assets"
    ]
}
